{
	"info": {
		"_postman_id": "cf1134ad-14ee-4b6a-906b-a693880f3b98",
		"name": "Library_Mgmt",
		"schema": "https://schema.getpostman.com/json/collection/v2.1.0/collection.json",
		"_exporter_id": "32620150",
		"_collection_link": "https://gold-spaceship-589114.postman.co/workspace/Workspace1~8a511e5b-817f-48fa-8b1c-a721e97a1e95/collection/32620150-cf1134ad-14ee-4b6a-906b-a693880f3b98?action=share&source=collection_link&creator=32620150"
	},
	"item": [
		{
			"name": "Librarian",
			"item": [
				{
					"name": "postdetails",
					"request": {
						"method": "POST",
						"header": [],
						"body": {
							"mode": "raw",
							"raw": "{\r\n    \"fname\":\"Anita\",\r\n    \"lname\":\"Sharma\",\r\n    \"email\":\"anitasharma@gmail.com\",\r\n    \"password\":\"anitsharma\",\r\n    \"phone\":\"9078688721\"\r\n}",
							"options": {
								"raw": {
									"language": "json"
								}
							}
						},
						"url": {
							"raw": "http://localhost:7000/v1/librarian/create",
							"protocol": "http",
							"host": [
								"localhost"
							],
							"port": "7000",
							"path": [
								"v1",
								"librarian",
								"create"
							]
						}
					},
					"response": []
				},
				{
					"name": "login",
					"request": {
						"method": "POST",
						"header": [],
						"body": {
							"mode": "raw",
							"raw": "{\r\n    \"email\":\"anmolarora@gmail.com\",\r\n    \"password\":\"anmolarora\"\r\n}",
							"options": {
								"raw": {
									"language": "json"
								}
							}
						},
						"url": {
							"raw": "http://localhost:7000/v1/librarian/login",
							"protocol": "http",
							"host": [
								"localhost"
							],
							"port": "7000",
							"path": [
								"v1",
								"librarian",
								"login"
							]
						}
					},
					"response": []
				},
				{
					"name": "verifying_token",
					"request": {
						"method": "POST",
						"header": [
							{
								"key": "Authorization",
								"value": "bearer eyJhbGciOiJIUzI1NiIsInR5cCI6IkpXVCJ9.eyJjaGVja0lkIjoiNjVkODI3MzkzZTEwMWE1NzRjZGRlZTY2IiwianRpIjowLjMxODI3MTYzOTU1MTUwNDg0LCJpYXQiOjE3MDg2NjY3ODcsImV4cCI6MTcwODY3MDM4N30.zSiMuuy6P9wH7B9cR9os3aRK6kIZpHAjXUx8LQYLwFM",
								"type": "text"
							}
						],
						"url": {
							"raw": "http://localhost:7000/v1/librarian/profile",
							"protocol": "http",
							"host": [
								"localhost"
							],
							"port": "7000",
							"path": [
								"v1",
								"librarian",
								"profile"
							]
						}
					},
					"response": []
				},
				{
					"name": "getinfobyid",
					"request": {
						"method": "GET",
						"header": [
							{
								"key": "Authorization",
								"value": "bearer eyJhbGciOiJIUzI1NiIsInR5cCI6IkpXVCJ9.eyJjaGVja0lkIjoiNjVkODI3MzkzZTEwMWE1NzRjZGRlZTY2IiwianRpIjoiZTQxOWIwMGYtYjJlNS00YzQ5LThlMDAtMjUwMWYyYmM2NDA4IiwiaWF0IjoxNzA4Njc0NDE1LCJleHAiOjE3MDg2NzgwMTV9.gW71q8kZE38YMCpGJyrpXbxXWmpsnVEz1yNz91lm6Dg",
								"type": "text"
							}
						],
						"url": {
							"raw": "http://localhost:7000/v1/librarian/getinfo/65d827393e101a574cddee66",
							"protocol": "http",
							"host": [
								"localhost"
							],
							"port": "7000",
							"path": [
								"v1",
								"librarian",
								"getinfo",
								"65d827393e101a574cddee66"
							]
						}
					},
					"response": []
				},
				{
					"name": "updateinfobyid",
					"request": {
						"method": "PUT",
						"header": [],
						"body": {
							"mode": "raw",
							"raw": "{\r\n    \"phone\":\"9078688322\"\r\n}",
							"options": {
								"raw": {
									"language": "json"
								}
							}
						},
						"url": {
							"raw": "http://localhost:7000/v1/librarian/updateinfo/65d827ecfa7e9acd7609d905",
							"protocol": "http",
							"host": [
								"localhost"
							],
							"port": "7000",
							"path": [
								"v1",
								"librarian",
								"updateinfo",
								"65d827ecfa7e9acd7609d905"
							]
						}
					},
					"response": []
				},
				{
					"name": "addbooks",
					"request": {
						"method": "POST",
						"header": [],
						"body": {
							"mode": "raw",
							"raw": "{\r\n    \"book_title\":\"joy of happiness\",\r\n    \"book_author\":\"Dalai Lama, Desmond Tutu\"\r\n}",
							"options": {
								"raw": {
									"language": "json"
								}
							}
						},
						"url": {
							"raw": "http://localhost:7000/v1/librarian/addbooks/65d827ecfa7e9acd7609d905",
							"protocol": "http",
							"host": [
								"localhost"
							],
							"port": "7000",
							"path": [
								"v1",
								"librarian",
								"addbooks",
								"65d827ecfa7e9acd7609d905"
							]
						}
					},
					"response": []
				},
				{
					"name": "updatebooks",
					"request": {
						"method": "PUT",
						"header": [],
						"body": {
							"mode": "raw",
							"raw": "{\r\n    \"book_title\":\"Joy\"\r\n}",
							"options": {
								"raw": {
									"language": "json"
								}
							}
						},
						"url": {
							"raw": "http://localhost:7000/v1/librarian/updatebooks/65d827ecfa7e9acd7609d905",
							"protocol": "http",
							"host": [
								"localhost"
							],
							"port": "7000",
							"path": [
								"v1",
								"librarian",
								"updatebooks",
								"65d827ecfa7e9acd7609d905"
							]
						}
					},
					"response": []
				},
				{
					"name": "getall",
					"request": {
						"method": "GET",
						"header": [],
						"url": {
							"raw": "http://localhost:7000/v1/librarian/getall?page=1&limit=1",
							"protocol": "http",
							"host": [
								"localhost"
							],
							"port": "7000",
							"path": [
								"v1",
								"librarian",
								"getall"
							],
							"query": [
								{
									"key": "page",
									"value": "1"
								},
								{
									"key": "limit",
									"value": "1"
								}
							]
						}
					},
					"response": []
				}
			]
		},
		{
			"name": "User",
			"item": [
				{
					"name": "postapi",
					"request": {
						"method": "POST",
						"header": [],
						"body": {
							"mode": "raw",
							"raw": "{\r\n    \"fname\":\"Akanksha\",\r\n    \"lname\":\"Goel\",\r\n    \"phone\":\"7090054311\",\r\n    \"email\":\"akankshaa@gmail.com\",\r\n    \"password\":\"akanksha\"\r\n}",
							"options": {
								"raw": {
									"language": "json"
								}
							}
						},
						"url": {
							"raw": "http://localhost:7000/v1/user/create",
							"protocol": "http",
							"host": [
								"localhost"
							],
							"port": "7000",
							"path": [
								"v1",
								"user",
								"create"
							]
						}
					},
					"response": []
				},
				{
					"name": "login",
					"request": {
						"method": "POST",
						"header": [],
						"body": {
							"mode": "raw",
							"raw": "{\r\n    \"phone\":\"7890654321\"\r\n}",
							"options": {
								"raw": {
									"language": "json"
								}
							}
						},
						"url": {
							"raw": "http://localhost:7000/v1/user/login",
							"protocol": "http",
							"host": [
								"localhost"
							],
							"port": "7000",
							"path": [
								"v1",
								"user",
								"login"
							]
						}
					},
					"response": []
				},
				{
					"name": "getaccessed",
					"request": {
						"method": "POST",
						"header": [
							{
								"key": "Authorization",
								"value": "bearer eyJhbGciOiJIUzI1NiIsInR5cCI6IkpXVCJ9.eyJjaGVja0lkIjoiNjVkODM2MGY0ZDk0Y2M0NjQ5M2E3N2ExIiwianRpIjoiMmRkNjQyMjctNjE2YS00MzU5LWIxYTAtMmZkNDFmMzI2N2I0IiwiaWF0IjoxNzA4NjY5NjU2LCJleHAiOjE3MDg2NzMyNTZ9.ci1Tlt7ZiSx82za95D3one6wTHCw9LsGvslS6V4YahU",
								"type": "text"
							}
						],
						"url": {
							"raw": "http://localhost:7000/v1/user/getaccessed",
							"protocol": "http",
							"host": [
								"localhost"
							],
							"port": "7000",
							"path": [
								"v1",
								"user",
								"getaccessed"
							]
						}
					},
					"response": []
				},
				{
					"name": "checkout",
					"request": {
						"method": "POST",
						"header": [],
						"body": {
							"mode": "raw",
							"raw": "{\r\n    \"book_title\":\"Joy\",\r\n    \"book_author\":\"Dalai Lama, Desmond Tutu\"\r\n\r\n}",
							"options": {
								"raw": {
									"language": "json"
								}
							}
						},
						"url": {
							"raw": "http://localhost:7000/v1/user/checkout/65d8360f4d94cc46493a77a1",
							"protocol": "http",
							"host": [
								"localhost"
							],
							"port": "7000",
							"path": [
								"v1",
								"user",
								"checkout",
								"65d8360f4d94cc46493a77a1"
							]
						}
					},
					"response": []
				},
				{
					"name": "returnbooks",
					"request": {
						"method": "POST",
						"header": [],
						"body": {
							"mode": "raw",
							"raw": "{\r\n    \"book_title\":\"Joy\",\r\n    \"book_author\":\"Dalai Lama, Desmond Tutu\"\r\n}",
							"options": {
								"raw": {
									"language": "json"
								}
							}
						},
						"url": {
							"raw": "http://localhost:7000/v1/user/returnbooks/65d8360f4d94cc46493a77a1",
							"protocol": "http",
							"host": [
								"localhost"
							],
							"port": "7000",
							"path": [
								"v1",
								"user",
								"returnbooks",
								"65d8360f4d94cc46493a77a1"
							]
						}
					},
					"response": []
				},
				{
					"name": "aggregate",
					"request": {
						"method": "GET",
						"header": []
					},
					"response": []
				}
			]
		}
	]
}